{
  "id":3,
  "name":"The Beatles",
  "description":"Help! and some more",
  "ownerId":1,
  "links": [
    {
      "rel": "self",
      "name": "\/users\/1\/playlists\/3",
    },
    {
      "rel": "tracks",
      "name": "\/users\/1\/playlists\/3\/tracks",
    },
    {
      "rel": "add track",
      "name": "\/users\/1\/playlists\/3\/tracks",
      "method": "POST",
    },
  ]
  /**
  "tracks":[
    {
      "id":1234,
      "name":"Help!",
      "artist": {
        "name":"The Beatles"
      },
      "duration":143,
      "tags":[] 
    },
    {
      "id":5678,
      "name":"You've Got to Hide Your Love Away",
      "artist": {
        "name":"The Beatles"
      },
      "duration":153,
      "tags":[] 
    }
  ]
  */
}