{  "$schema": "http://json-schema.org/draft-03/schema",
   "type": "object",
   "description": "A single playlist with all information",
   "properties": {
     "name":  { "type": "string", "required": true },
     "description":  { "type": "string" }
   }
}