{
  "type": "object",
  "$schema": "http://json-schema.org/draft-03/schema",
  "title": "JSON Schema for Create User POST method body",
  "required": true,
  "properties": {
    "name": {
      "type": "string",
      "required": true
    },
  }
}