{
  "type": "object",
  "$schema": "http://json-schema.org/draft-03/schema",
  "title": "JSON Schema for a Track",
  "required": true,
  "properties": {
    "id": {
      "type": "integer",
      "required": true
    },
    "name": {
      "type": "string",
      "required": true
    },
    "links": {
      "type": "array",
      "minItems": 1,
      "items": { "$ref": "link_schema.json" },
      "uniqueItems": true,
      "required": false
    },
  }
}